\relax 
\@nameuse{bbl@beforestart}
\catcode `"\active 
\catcode `<\active 
\catcode `>\active 
\@nameuse{es@quoting}
\babel@aux{spanish}{}
\@writefile{toc}{\contentsline {section}{\numberline {1}Codigo}{2}\protected@file@percent }
\@writefile{lof}{\contentsline {figure}{\numberline {1}{\ignorespaces Algoritmo 1}}{2}\protected@file@percent }
\@writefile{lof}{\contentsline {figure}{\numberline {2}{\ignorespaces Algoritmo 2}}{3}\protected@file@percent }
\@writefile{toc}{\contentsline {section}{\numberline {2}Resultados}{3}\protected@file@percent }
\@writefile{lof}{\contentsline {figure}{\numberline {3}{\ignorespaces Ejecución del Algoritmo 1}}{3}\protected@file@percent }
\@writefile{lof}{\contentsline {figure}{\numberline {4}{\ignorespaces Ejecución del Algoritmo 2}}{4}\protected@file@percent }
\@writefile{lof}{\contentsline {figure}{\numberline {5}{\ignorespaces Comparación grafica del tiempo de ejecución de los algoritmos}}{4}\protected@file@percent }
